[
    {
        "output":    "{faction}_{command}_autonomous underwater vehicle",
        "command":   "sub surface",
        "main":      ["[fill]unmanned"]
    },
    {
        "output":    "{faction}_{command}_bottomed sea mine decoy",
        "command":   "sub surface",
        "main":      ["[fill]sea mine=top half",
                      "{[scale=.6,yshift=-6]decoy}"],
        "lower":     ["bottomed"]
    },
    {
        "output":    "{faction}_{command}_bottomed submarine",
        "command":   "sub surface",
        "main":      ["submarine"],
        "lower":     ["bottomed"]
    },
    {
        "output":    "{faction}_{command}_civilian autonomous underwatervehicle",
        "command":   "sub surface",
        "main":      ["unmanned"]
    },
    {
        "output":    "{faction}_{command}_civilian diver",
        "command":   "sub surface",
        "main":      ["diving"]
    },
    {
        "output":    "{faction}_{command}_civilian seabed installation",
        "command":   "sub surface",
        "main":      ["seabed installation"]
    },
    {
        "output":    "{faction}_{command}_civilian submersible",
        "command":   "sub surface",
        "main":      ["submersible"]
    },
    {
        "output":    "{faction}_{command}_civilian",
        "command":   "sub surface",
        "main":      ["squashed text=CIV"]
    },
    {
        "output":    "{faction}_{command}_improvised explosive device",
        "command":   "sub surface",
        "main":      ["squashed text=IED"]
    },
    {
        "output":    "{faction}_{command}_military diver",
        "command":   "sub surface",
        "main":      ["diving=military"]
    },
    {
        "output":    "{faction}_{command}_military seabed installation",
        "command":   "sub surface",
        "main":      ["[fill]seabed installation"]
    },
    {
        "output":    "{faction}_{command}_military",
        "command":   "sub surface",
        "main":      ["squashed text=MIL"]
    },
    {
        "output":    "{faction}_{command}_moored sea mine decoy",
        "command":   "sub surface",
        "main":      ["[fill]sea mine=top half",
                      "{[yshift=-4,scale=.6]decoy}"],
        "lower":     ["[yshift=-2]bottomed,moored"]
    },
    {
        "output":    "{faction}_{command}_non submarine",
        "command":   "sub surface",
        "main":      ["small squashed text=NON SUB"]
    },
    {
        "output":    "{faction}_{command}_other submersible",
        "command":   "sub surface",
        "main":      ["[fill]submersible"]
    },
    {
        "output":    "{faction}_{command}_sea mine decoy",
        "command":   "sub surface",
        "main":      ["[fill]sea mine=top half",
                      "{[scale=.6,yshift=-6]decoy}"]
    },
    {
        "output":    "{faction}_{command}_snorkelling submarine",
        "command":   "sub surface",
        "main":      ["submarine"],
        "upper":     ["[yshift=-8]surfaced",
                      "[yshift=-2]type=vlight"]
    },
    {
        "output":    "{faction}_{command}_submarine",
        "command":   "sub surface",
        "main":      ["submarine"]
    },
    {
        "output":    "{faction}_{command}_surfaced submarine",
        "command":   "sub surface",
        "main":      ["submarine"],
        "lower":     ["surfaced"]
    },
    {
        "output":    "{faction}_{command}_torpedo",
        "command":   "sub surface",
        "main":      ["torpedo"]
    },
    {
        "output":    "{faction}_{command}_underwater decoy",
        "command":   "sub surface",
        "main":      ["decoy"],
        "upper":     ["[yshift=-4]bottomed"]
    },
    {
        "output":    "{faction}_{command}_underwater weapon",
        "command":   "sub surface",
        "main":      ["squashed text=WPN"]
    },
    {
        "output":    "{faction}_{command}_unexploded ordnance",
        "command":   "sub surface",
        "main":      ["unexploded ordnance"]
    }
]    
